…
Make the data into a [tibble](https://github.com/hadley/tibble)

```r
bh <- as_tibble(bring_heat_2)
```

Take a look at what we have

```r
bh
```

```
## # A tibble: 5,132 × 42
##            `Date/Time` Tournamemnt        Opponent `Point Elapsed Seconds`
##                 <dttm>       <chr>           <chr>                   <int>
## 1  2015-06-12 20:31:00        <NA> vs Thunderbirds                     133
## 2  2015-06-12 20:31:00        <NA> vs Thunderbirds                     133
## 3  2015-06-12 20:31:00        <NA> vs Thunderbirds                     133
## 4  2015-06-12 20:31:00        <NA> vs Thunderbirds                     133
## 5  2015-06-12 20:31:00        <NA> vs Thunderbirds                     133
## 6  2015-06-12 20:31:00        <NA> vs Thunderbirds                     133
## 7  2015-06-12 20:31:00        <NA> vs Thunderbirds                     133
## 8  2015-06-12 20:31:00        <NA> vs Thunderbirds                     133
## 9  2015-06-12 20:31:00        <NA> vs Thunderbirds                     133
## 10 2015-06-12 20:31:00        <NA> vs Thunderbirds                     133
## # ... with 5,122 more rows, and 38 more variables: Line <chr>, `Our Score
## #   - End of Point` <int>, `Their Score - End of Point` <int>, `Event
## #   Type` <chr>, Action <chr>, Passer <chr>, Receiver <chr>,
## #   Defender <chr>, `Hang Time (secs)` <dbl>, `Player 0` <chr>, `Player
## #   1` <chr>, `Player 2` <chr>, `Player 3` <chr>, `Player 4` <chr>,
## #   `Player 5` <chr>, `Player 6` <chr>, `Player 7` <chr>, `Player
## #   8` <chr>, `Player 9` <chr>, `Player 10` <chr>, `Player 11` <chr>,
## #   `Player 12` <chr>, `Player 13` <chr>, `Player 14` <chr>, `Player
## #   15` <chr>, `Player 16` <chr>, `Player 17` <chr>, `Player 18` <chr>,
…
